cpam • cpam
…
Experimental design

An example experimental design is included in the cpam
package. Since it is case-only design, there are no experimental
conditions beyond time.

# load example data
load(system.file("extdata", "exp_design_example.rda", package = "cpam"))
exp_design_example
#> # A tibble: 30 × 2
#>    sample  time
#>    <chr>  <int>
#>  1 X1         1
#>  2 X2         1
#>  3 X3         1
#>  4 X4         1
#>  5 X5         1
#>  6 X6         2
#>  7 X7         2
#>  8 X8         2
#>  9 X9         2
#> 10 X10        2
#> # ℹ 20 more rows
…
We can look at a summary of the fitted cpam object

cpo

If you run the code on your own computer, you can launch the Shiny
app to visualise the results interactively using
visualise(cpo).

Result tables

The results of the analysis are summarised using the
results function.

results(cpo)
#> # A tibble: 104 × 16
#>    target_id         p    cp shape lfc.1  lfc.2  lfc.3  lfc.4  lfc.5  lfc.6 counts.1 counts.2 counts.3 counts.4 counts.5
#>    <chr>         <dbl> <dbl> <chr> <dbl>  <dbl>  <dbl>  <dbl>  <dbl>  <dbl>    <dbl>    <dbl>    <dbl>    <dbl>    <dbl>
#>  1 g003      9.26e-319     1 mdcx      0 -0.349 -0.634 -0.856 -1.02  -1.11    3267.    2566.    2105.    1805.    1617. 
#>  2 g013      9.26e-319     3 ilin      0  0      0      0.327  0.655  0.982  18662.   18662.   18662.   23416.   29382. 
#>  3 g055      9.26e-319     1 ilin      0  0.195  0.389  0.584  0.778  0.973    608.     696.     796.     911.    1043. 
#>  4 g063      9.26e-319     1 cv        0  0.595  0.937  1.03   0.861  0.443   6172.    9322.   11814.   12563.   11210. 
#>  5 g069      9.26e-319     2 ilin      0  0      0.225  0.451  0.676  0.902  67904.   67904.   79391.   92821.  108524. 
#>  6 g090      9.26e-319     2 ilin      0  0      0.238  0.476  0.715  0.953     32.9     32.9     38.7     45.7     53.9
#>  7 g106      9.26e-319     1 mdcx      0 -0.470 -0.778 -0.892 -0.902 -0.902  30076.   21709.   17542.   16202.   16090. 
#>  8 g126      9.26e-319     1 ilin      0  0.225  0.450  0.675  0.900  1.12    4017.    4695.    5487.    6412.    7494. 
#>  9 g128      9.26e-319     1 ilin      0  0.209  0.418  0.628  0.837  1.05   38099.   44043.   50915.   58859.   68043. 
#> 10 g129      9.26e-319     1 cv        0  0.626  0.978  1.11   1.08   0.888    259.     399.     510.     560.     545. 
#> # ℹ 94 more rows
#> # ℹ 1 more variable: counts.6 <dbl>

The generated results can be filtered by specifying minimum counts,
minimum log-fold changes, and maximum
pp-values.
For example, to return only the transcripts with a log-fold change
greater than 1, at least 10 counts, and a
pp-value
less than 0.01, we can run

results(cpo, min_count = 10, min_lfc = 1, p_threshold = 0.01)
#> # A tibble: 22 × 16
#>    target_id         p    cp shape lfc.1  lfc.2  lfc.3  lfc.4 lfc.5 lfc.6 counts.1 counts.2 counts.3 counts.4 counts.5
#>    <chr>         <dbl> <dbl> <chr> <dbl>  <dbl>  <dbl>  <dbl> <dbl> <dbl>    <dbl>    <dbl>    <dbl>    <dbl>    <dbl>
#>  1 g063      9.26e-319     1 cv        0  0.595  0.937  1.03  0.861 0.443   6172.    9322.   11814.   12563.   11210. 
#>  2 g126      9.26e-319     1 ilin      0  0.225  0.450  0.675 0.900 1.12    4017.    4695.    5487.    6412.    7494. 
#>  3 g128      9.26e-319     1 ilin      0  0.209  0.418  0.628 0.837 1.05   38099.   44043.   50915.   58859.   68043. 
#>  4 g129      9.26e-319     1 cv        0  0.626  0.978  1.11  1.08  0.888    259.     399.     510.     560.     545. 
#>  5 g171      9.26e-319     1 cv        0  0.593  0.922  1.01  0.901 0.616   4950.    7468.    9382.    9989.    9241. 
#>  6 g186      9.26e-319     1 cx        0 -0.233 -0.324 -0.209 0.219 1.05   19740.   16792.   15774.   17077.   22974. 
#>  7 g331      9.26e-319     3 ilin      0  0      0      0.339 0.678 1.02      37.0     37.0     37.0     46.8     59.1
#>  8 g334      9.26e-319     1 micv      0  0.402  0.692  0.886 1.00  1.06    2798.    3696.    4519.    5171.    5614. 
#>  9 g341      9.26e-319     1 cx        0 -0.465 -0.593 -0.383 0.164 1.05   23681.   17157.   15704.   18161.   26532. 
#> 10 g393      9.26e-319     1 cv        0  0.432  0.747  0.945 1.02  0.987    932.    1257.    1564.    1793.    1896. 
#> # ℹ 12 more rows
#> # ℹ 1 more variable: counts.6 <dbl>
…
The subtitle shows (1,cv) indicating a changepoint at first
time point (i.e., the gene responds immediately) and a convex
('cv') shaped trend.

Let’s look for a gene that has a more complex trend. Unconstrained
shapes in cpam are denoted by
'tp'.1 We can filter the
results for genes with unconstrained shapes and plot one of them.

results(cpo) %>% 
  filter(shape == "tp")
#> # A tibble: 14 × 16
#>    target_id         p    cp shape lfc.1  lfc.2  lfc.3   lfc.4  lfc.5   lfc.6 counts.1 counts.2 counts.3 counts.4
#>    <chr>         <dbl> <dbl> <chr> <dbl>  <dbl>  <dbl>   <dbl>  <dbl>   <dbl>    <dbl>    <dbl>    <dbl>    <dbl>
#>  1 g210      9.26e-319     1 tp        0  0.640  0.835  0.662   0.624  0.842    62930.   98034.  112257.   99573.
#>  2 g325      9.26e-319     1 tp        0 -0.896 -0.881 -0.157   0.209 -0.0882   68067.   36583.   36956.   61053.
#>  3 g335      9.26e-319     1 tp        0  0.251  0.310  0.240   0.455  0.979     1155.    1374.    1432.    1364.
#>  4 g339      9.26e-319     1 tp        0 -0.754 -0.775 -0.307  -0.367 -0.913     4361.    2586.    2548.    3526.
#>  5 g399      9.26e-319     1 tp        0  0.248  0.486  0.704   0.874  1.01      3917.    4652.    5487.    6382.
#>  6 g400      9.26e-319     1 tp        0 -0.915 -0.672  0.558   0.706 -0.268     9725.    5159.    6105.   14312.
#>  7 g417      9.26e-319     1 tp        0 -0.424 -0.573 -0.532  -0.710 -0.982     7232.    5390.    4861.    5003.
#>  8 g424      9.26e-319     1 tp        0 -0.324 -0.226  0.0439 -0.204 -0.905     9557.    7636.    8173.    9852.
#>  9 g640      9.26e-319     1 tp        0  0.574  0.765  0.396   0.497  0.920     1044.    1554.    1773.    1373.
#> 10 g715      9.26e-319     1 tp        0  0.835  0.808 -0.238  -0.680 -0.333   157157.  280360.  275216.  133216.
#> # ℹ 4 more rows
#> # ℹ 2 more variables: counts.5 <dbl>, counts.6 <dbl>
…
Here a monotonic increasing concave shape (‘micv’) is chosen, and we can
see this trend deviates from the data substantially more that the
unconstrained shape. See the manuscript for more
details on the shape types available in cpam.

Next we look for a gene with a changepoint by filtering for genes
with changepoints at the third time point.

results(cpo) %>% 
  filter(cp == 3)
#> # A tibble: 13 × 16
#>    target_id         p    cp shape lfc.1 lfc.2 lfc.3  lfc.4  lfc.5  lfc.6 counts.1 counts.2 counts.3 counts.4 counts.5
#>    <chr>         <dbl> <dbl> <chr> <dbl> <dbl> <dbl>  <dbl>  <dbl>  <dbl>    <dbl>    <dbl>    <dbl>    <dbl>    <dbl>
#>  1 g013      9.26e-319     3 ilin      0     0     0  0.327  0.655  0.982  18662.   18662.   18662.   23416.   29382. 
#>  2 g146      9.26e-319     3 dlin      0     0     0 -0.329 -0.659 -0.988    168.     168.     168.     134.     106. 
#>  3 g187      9.26e-319     3 dlin      0     0     0 -0.419 -0.839 -1.26   18216.   18216.   18216.   13622.   10186. 
#>  4 g297      9.26e-319     3 ilin      0     0     0  0.308  0.616  0.924   9799.    9799.    9799.   12133.   15021. 
#>  5 g304      9.26e-319     3 cx        0     0     0 -1.04  -0.652  0.883   3130.    3130.    3130.    1520.    1993. 
#>  6 g331      9.26e-319     3 ilin      0     0     0  0.339  0.678  1.02      37.0     37.0     37.0     46.8     59.1
#>  7 g559      9.26e-319     3 ilin      0     0     0  0.292  0.584  0.877    444.     444.     444.     543.     665. 
#>  8 g623      9.26e-319     3 micv      0     0     0  0.317  0.634  0.951    329.     329.     329.     409.     510. 
#>  9 g634      9.26e-319     3 cx        0     0     0 -0.880 -1.13  -0.759  12547.   12547.   12547.    6818.    5721. 
#> 10 g652      9.26e-319     3 ilin      0     0     0  0.363  0.726  1.09   13016.   13016.   13016.   16739.   21528. 
#> # ℹ 3 more rows
#> # ℹ 1 more variable: counts.6 <dbl>
…
